<?xml version="1.0" encoding="iso-8859-1"?>
<!-- Generator: Adobe Illustrator 19.0.0, SVG Export Plug-In . SVG Version: 6.00 Build 0)  -->
<svg version="1.1" id="Capa_1" xmlns="http://www.w3.org/2000/svg" xmlns:xlink="http://www.w3.org/1999/xlink" x="0px" y="0px"
	 viewBox="0 0 512 512" style="enable-background:new 0 0 512 512;" xml:space="preserve">
<path style="fill:#7D8AFF;" d="M168.892,81.356c-44.486,1.514-86.069,19.52-117.662,51.113C18.194,165.505,0,209.461,0,256.24h30
	c0-77.906,61.761-141.648,138.892-144.862v30.419l45.542-45.553L168.892,50.68V81.356z"/>
<path style="fill:#66E26F;" d="M512,256.24h-30c0,77.906-61.761,141.648-138.892,144.862v-30.419l-45.542,45.553l45.542,45.564
	v-30.677c44.486-1.514,86.069-19.52,117.662-51.113C493.807,346.974,512,303.018,512,256.24z"/>
<path style="fill:#E6F9FF;" d="M136,511.443L0,488.964V288.557l136,22.479l136-22.479v200.407L136,511.443z"/>
<path style="fill:#CCEFFF;" d="M136,511.443V311.036l136-22.479v200.407L136,511.443z"/>
<polygon style="fill:#FFDC40;" points="272,458.557 136,481.036 0,458.557 0,488.964 136,511.443 272,488.964 "/>
<polygon style="fill:#FFAB15;" points="136,481.036 136,511.443 272,488.964 272,458.557 "/>
<path style="fill:#E6F9FF;" d="M376,223.443l-136-22.479V0.557l136,22.479L512,0.557v200.407L376,223.443z"/>
<path style="fill:#CCEFFF;" d="M376,223.443V23.036L512,0.557v200.407L376,223.443z"/>
<polygon style="fill:#FFDC40;" points="512,170.557 376,193.036 240,170.557 240,200.964 376,223.443 512,200.964 "/>
<polygon style="fill:#FFAB15;" points="376,193.036 376,223.443 512,200.964 512,170.557 "/>
<g>
</g>
<g>
</g>
<g>
</g>
<g>
</g>
<g>
</g>
<g>
</g>
<g>
</g>
<g>
</g>
<g>
</g>
<g>
</g>
<g>
</g>
<g>
</g>
<g>
</g>
<g>
</g>
<g>
</g>
</svg>
